NAB spore analyses
…
NAB spore analyses

Yiluan Song

11/18/2021

Explore data

Read and clean NAB data

The complete dataset has both pollen and spore count. In this analysis we focus on spores.

## # A tibble: 3,900,672 x 9
##    Date                taxa     group count station   location   lat   lon    id
##    <dttm>              <chr>    <chr> <dbl> <chr>     <chr>    <dbl> <dbl> <int>
##  1 2009-03-17 00:00:00 Acer     poll    12 Certifie Albany,  42.7 -73.8    15
##  2 2009-03-17 00:00:00 Alnus    poll     0 Certifie Albany,  42.7 -73.8    15
##  3 2009-03-17 00:00:00 Ambrosia poll     0 Certifie Albany,  42.7 -73.8    15
##  4 2009-03-17 00:00:00 Artemis poll     0 Certifie Albany,  42.7 -73.8    15
##  5 2009-03-17 00:00:00 Betula   poll     0 Certifie Albany,  42.7 -73.8    15
##  6 2009-03-17 00:00:00 Carya    poll     0 Certifie Albany,  42.7 -73.8    15
##  7 2009-03-17 00:00:00 Chenopo poll     0 Certifie Albany,  42.7 -73.8    15
##  8 2009-03-17 00:00:00 Cupress poll     0 Certifie Albany,  42.7 -73.8    15
##  9 2009-03-17 00:00:00 Fagus    poll     0 Certifie Albany,  42.7 -73.8    15
## 10 2009-03-17 00:00:00 Fraxinus poll     0 Certifie Albany,  42.7 -73.8    15
## #  with 3,900,662 more rows

Sampling stations

Meta-data associated with sampling stations.

## # A tibble: 34 x 10
##    taxa  station location   lat   lon    id mindate            
##    <chr> <chr>   <chr>    <dbl> <dbl> <int> <dttm>             
##  1 Tota North  Flower   33.0 -97.1    32 2009-01-03 00:00:00
##  2 Tota Dr. Je Dallas,  32.9 -96.9    21 2009-01-02 00:00:00
##  3 Tota Oklaho Oklahom  35.5 -97.5    35 2009-01-02 00:00:00
##  4 Tota Wilfor San Ant  29.4 -98.6    50 2011-06-18 00:00:00
##  5 Tota Saint  St. Lou  38.7 -90.3    37 2009-01-02 00:00:00
##  6 Tota Sylvan San Ant  29.4 -98.5    41 2013-11-18 00:00:00
##  7 Tota RAPCA   Dayton,  39.8 -84.2    36 2009-01-02 00:00:00
##  8 Tota US Arm Silver   39.0 -77.1    49 2009-01-05 00:00:00
##  9 Tota Scott  College  30.6 -96.3    39 2009-01-03 00:00:00
## 10 Tota City o Houston  29.7 -95.4    19 2009-02-02 00:00:00
## #  with 24 more rows, and 3 more variables: maxdate <dttm>, n <int>,
## #   range <drtn>
…
Clean up taxonomy

We also get classification on various levels for aggregation.

## # A tibble: 74 x 8
##    taxa_raw          taxa_clean kingdom   phylum   class   order  family  genus 
##    <chr>             <chr>      <chr>     <chr>    <chr>   <chr>  <chr>   <chr> 
##  1 Acer              Acer       Viridipl Strepto Magnol Sapin Sapind Acer  
##  2 Agrocybe-type     Agrocybe   Fungi     Basidio Agaric Agari Stroph Agroc
##  3 Alnus             Alnus      Viridipl Strepto Magnol Fagal Betula Alnus 
##  4 Alternaria        Alternaria Fungi     Ascomyc Dothid Pleos Pleosp Alter
##  5 Ambrosia          Ambrosia   Viridipl Strepto Magnol Aster Astera Ambro
##  6 Arecaceae         Arecaceae  Viridipl Strepto Magnol Areca Arecac <NA>  
##  7 Artemisia         Artemisia  Viridipl Strepto Magnol Aster Astera Artem
##  8 Undifferentiated Ascomycota Fungi     Ascomyc <NA>    <NA>   <NA>    <NA>  
##  9 Ascospores (Undi Ascomycota Fungi     Ascomyc <NA>    <NA>   <NA>    <NA>  
## 10 Asteraceae (Excl Asteraceae Viridipl Strepto Magnol Aster Astera <NA>  
## #  with 64 more rows
…
